time,person_count
24/01/2018 22:33:08,0
06/02/2018 10:26:02,1
06/02/2018 10:26:19,2
06/02/2018 10:26:21,3
06/02/2018 10:26:23,4
06/02/2018 10:26:25,5
06/02/2018 10:26:27,6
06/02/2018 10:26:29,7
06/02/2018 10:26:31,8
06/02/2018 10:26:34,9
06/02/2018 10:26:36,10
06/02/2018 10:26:38,11
06/02/2018 10:26:43,10
06/02/2018 10:26:45,9
06/02/2018 10:26:46,8
06/02/2018 10:26:48,7
06/02/2018 10:26:50,6
06/02/2018 10:26:52,5
06/02/2018 10:26:54,4
06/02/2018 10:26:57,3
06/02/2018 10:26:58,2
06/02/2018 10:27:01,1
06/02/2018 10:27:03,0
06/02/2018 10:45:47,0
06/02/2018 10:56:35,1
06/02/2018 10:56:36,0
06/02/2018 10:56:37,1
06/02/2018 10:56:37,2
06/02/2018 10:56:38,1
06/02/2018 10:56:38,0
06/02/2018 10:57:05,1
06/02/2018 10:57:07,2
06/02/2018 10:57:08,3
06/02/2018 10:57:10,2
06/02/2018 10:57:11,1
06/02/2018 10:57:12,0
06/02/2018 11:46:19,0
06/02/2018 11:51:23,0
12/02/2018 10:27:48,1
12/02/2018 10:27:49,0
12/02/2018 10:32:52,0
12/02/2018 10:37:56,0
12/02/2018 10:42:59,0
12/02/2018 10:48:03,0
12/02/2018 10:53:06,0
12/02/2018 10:58:10,0
12/02/2018 11:03:13,0
12/02/2018 11:08:16,0
12/02/2018 11:13:20,0
12/02/2018 11:18:23,0
12/02/2018 11:23:27,0
12/02/2018 12:59:54,1
12/02/2018 13:00:05,2
12/02/2018 13:00:05,3
12/02/2018 13:00:05,4
12/02/2018 13:00:05,5
12/02/2018 13:00:06,7
12/02/2018 13:00:06,6
12/02/2018 13:00:06,8
12/02/2018 13:00:07,9
12/02/2018 13:00:07,11
12/02/2018 13:00:08,10
12/02/2018 13:02:16,12
12/02/2018 13:07:20,12
12/02/2018 13:12:23,12
12/02/2018 13:12:52,13
12/02/2018 13:17:56,13
12/02/2018 13:22:59,13
12/02/2018 13:28:02,13
12/02/2018 13:31:57,12
12/02/2018 13:31:57,11
12/02/2018 13:31:58,10
12/02/2018 13:31:58,9
12/02/2018 13:31:58,8
12/02/2018 13:31:59,7
12/02/2018 13:31:59,6
12/02/2018 13:31:59,5
12/02/2018 13:32:00,4
12/02/2018 13:32:00,3
12/02/2018 13:32:01,2
12/02/2018 13:32:01,1
12/02/2018 13:32:02,0
12/02/2018 13:37:05,0
12/02/2018 13:42:09,0
12/02/2018 13:47:12,0
12/02/2018 13:52:15,0
12/02/2018 13:57:19,0
12/02/2018 14:02:22,0
12/02/2018 14:07:26,0
12/02/2018 14:12:29,0
12/02/2018 14:17:32,0
12/02/2018 14:22:36,0
12/02/2018 14:27:39,0
13/02/2018 08:59:50,1
13/02/2018 08:59:50,2
13/02/2018 08:59:50,3
13/02/2018 08:59:51,4
13/02/2018 08:59:51,5
13/02/2018 09:00:03,6
13/02/2018 09:00:04,7
13/02/2018 09:00:04,8
13/02/2018 09:00:04,9
13/02/2018 09:05:08,9
13/02/2018 09:10:12,9
13/02/2018 09:15:15,9
13/02/2018 09:20:18,9
13/02/2018 09:25:22,9
13/02/2018 09:30:26,9
13/02/2018 09:35:28,9
13/02/2018 09:40:32,9
13/02/2018 09:45:35,9
13/02/2018 09:50:39,9
13/02/2018 09:55:42,9
13/02/2018 10:00:45,9
13/02/2018 10:05:49,9
13/02/2018 10:10:53,9
13/02/2018 10:15:56,9
13/02/2018 10:20:59,9
13/02/2018 10:26:03,9
13/02/2018 10:31:06,9
13/02/2018 10:36:09,9
13/02/2018 10:41:13,9
13/02/2018 10:46:16,9
13/02/2018 10:51:20,9
13/02/2018 10:56:23,9
13/02/2018 11:01:27,9
13/02/2018 11:06:30,9
13/02/2018 11:11:33,9
13/02/2018 11:16:37,9
13/02/2018 11:21:40,9
13/02/2018 11:26:44,9
13/02/2018 11:31:47,9
13/02/2018 11:36:51,9
13/02/2018 11:41:54,9
13/02/2018 11:46:58,9
13/02/2018 11:52:01,9
13/02/2018 11:57:04,9
13/02/2018 12:02:08,9
13/02/2018 12:07:11,9
13/02/2018 12:12:15,9
13/02/2018 12:17:18,9
13/02/2018 12:22:21,9
13/02/2018 12:27:25,9
13/02/2018 12:32:29,9
13/02/2018 12:37:32,9
13/02/2018 12:42:35,9
13/02/2018 12:45:10,8
13/02/2018 12:45:10,7
13/02/2018 12:45:10,6
13/02/2018 12:45:11,5
13/02/2018 12:45:11,4
13/02/2018 12:45:11,3
13/02/2018 12:45:12,2
13/02/2018 12:45:12,1
13/02/2018 12:45:14,0
13/02/2018 12:50:18,0
13/02/2018 12:55:22,0
13/02/2018 13:00:25,0
13/02/2018 13:05:28,0
13/02/2018 13:10:32,0
13/02/2018 13:15:35,0
13/02/2018 13:20:39,0
13/02/2018 13:25:42,0
13/02/2018 13:30:45,0
13/02/2018 13:35:49,0
13/02/2018 13:40:52,0
13/02/2018 13:55:01,1
13/02/2018 13:55:02,2
13/02/2018 13:55:02,3
13/02/2018 13:55:03,4
13/02/2018 13:55:03,5
13/02/2018 13:55:03,6
13/02/2018 13:55:05,7
13/02/2018 13:55:05,8
13/02/2018 13:55:06,9
13/02/2018 14:00:09,9
13/02/2018 14:05:13,9
13/02/2018 14:10:16,9
13/02/2018 14:14:37,10
13/02/2018 14:19:40,10
13/02/2018 14:24:44,10
13/02/2018 14:29:47,10
13/02/2018 14:34:51,10
13/02/2018 14:39:54,10
13/02/2018 14:44:57,10
13/02/2018 14:50:01,10
13/02/2018 14:55:04,10
13/02/2018 15:00:08,10
13/02/2018 15:05:12,10
13/02/2018 15:10:15,10
13/02/2018 15:15:18,10
13/02/2018 15:20:22,10
13/02/2018 15:25:25,10
13/02/2018 15:30:28,10
13/02/2018 15:33:56,11
13/02/2018 15:39:00,11
13/02/2018 15:44:03,11
13/02/2018 15:49:07,11
13/02/2018 15:54:10,11
13/02/2018 15:59:14,11
13/02/2018 16:00:03,10
13/02/2018 16:05:07,10
13/02/2018 16:10:10,10
13/02/2018 16:15:14,10
13/02/2018 16:15:26,9
13/02/2018 16:15:32,10
13/02/2018 16:20:36,10
13/02/2018 16:25:39,10
13/02/2018 16:30:42,10
13/02/2018 16:35:46,10
13/02/2018 16:40:49,10
13/02/2018 16:45:53,10
13/02/2018 16:50:56,10
13/02/2018 16:55:59,10
13/02/2018 17:01:03,10
13/02/2018 17:06:06,10
13/02/2018 17:19:09,6
13/02/2018 17:11:10,10
13/02/2018 17:13:44,9
13/02/2018 17:13:44,8
13/02/2018 17:13:45,7
13/02/2018 17:13:46,6
13/02/2018 17:13:48,5
13/02/2018 17:13:48,6
13/02/2018 17:14:03,7
13/02/2018 17:14:05,6
13/02/2018 17:24:12,6
13/02/2018 17:29:15,6
13/02/2018 17:34:19,6
13/02/2018 17:35:37,5
13/02/2018 17:35:37,4
13/02/2018 17:35:37,3
13/02/2018 17:35:38,2
13/02/2018 17:35:38,1
13/02/2018 17:35:39,0
13/02/2018 17:40:42,0
13/02/2018 17:45:46,0
13/02/2018 17:50:49,0
13/02/2018 17:55:52,0
13/02/2018 18:00:56,0
13/02/2018 18:05:59,0
13/02/2018 18:11:03,0
13/02/2018 18:16:06,0
13/02/2018 18:21:09,0
13/02/2018 18:26:13,0
13/02/2018 18:31:16,0
15/02/2018 09:02:10,1
15/02/2018 09:02:11,2
15/02/2018 09:02:11,3
15/02/2018 09:02:12,4
15/02/2018 09:07:16,4
15/02/2018 09:12:19,4
15/02/2018 09:17:22,4
15/02/2018 09:22:26,4
15/02/2018 09:27:29,4
15/02/2018 09:32:33,4
15/02/2018 09:37:36,4
15/02/2018 09:42:40,4
15/02/2018 09:47:44,4
15/02/2018 09:52:46,4
15/02/2018 09:57:50,4
15/02/2018 10:02:53,4
15/02/2018 10:06:43,3
15/02/2018 10:11:46,3
15/02/2018 10:16:49,3
15/02/2018 10:20:05,2
15/02/2018 10:20:08,1
15/02/2018 10:20:08,0
15/02/2018 10:25:12,0
15/02/2018 10:30:15,0
15/02/2018 10:35:19,0
15/02/2018 10:40:22,0
15/02/2018 10:45:25,0
15/02/2018 10:50:29,0
15/02/2018 10:55:32,0
15/02/2018 11:00:36,0
15/02/2018 11:05:39,0
15/02/2018 11:10:42,0
15/02/2018 11:15:46,0
15/02/2018 12:35:50,2
15/02/2018 12:35:50,1
15/02/2018 12:40:53,2
15/02/2018 12:45:57,2
15/02/2018 12:51:01,2
15/02/2018 12:56:04,2
15/02/2018 13:01:07,2
15/02/2018 13:06:11,2
15/02/2018 13:11:14,2
15/02/2018 13:16:18,2
15/02/2018 13:21:21,2
15/02/2018 13:26:24,2
15/02/2018 13:31:28,2
15/02/2018 13:36:31,2
15/02/2018 13:41:35,2
15/02/2018 13:46:38,2
15/02/2018 13:51:42,2
15/02/2018 13:56:45,2
15/02/2018 14:01:48,2
15/02/2018 14:06:52,2
15/02/2018 14:11:55,2
15/02/2018 14:16:59,2
15/02/2018 14:22:02,2
15/02/2018 14:26:43,0
15/02/2018 14:26:43,1
15/02/2018 14:31:45,0
15/02/2018 14:36:49,0
15/02/2018 14:41:52,0
15/02/2018 14:46:56,0
15/02/2018 14:51:59,0
15/02/2018 14:57:02,0
15/02/2018 15:02:06,0
15/02/2018 15:07:09,0
15/02/2018 15:12:13,0
15/02/2018 15:17:16,0
15/02/2018 15:22:21,0
19/02/2018 12:57:20,1
19/02/2018 12:57:20,2
19/02/2018 12:57:21,3
19/02/2018 12:57:21,4
19/02/2018 12:57:31,5
19/02/2018 12:57:31,6
19/02/2018 12:58:37,7
19/02/2018 12:58:38,8
19/02/2018 12:58:46,9
19/02/2018 12:59:17,10
19/02/2018 13:00:05,11
19/02/2018 13:01:50,12
19/02/2018 13:03:24,13
19/02/2018 13:08:27,13
19/02/2018 13:13:30,13
19/02/2018 13:18:34,13
19/02/2018 13:23:37,13
19/02/2018 13:28:41,13
19/02/2018 13:33:44,13
19/02/2018 13:38:48,13
19/02/2018 13:43:51,13
19/02/2018 13:44:53,12
19/02/2018 13:44:53,11
19/02/2018 13:44:53,10
19/02/2018 13:44:54,9
19/02/2018 13:44:54,8
19/02/2018 13:44:54,7
19/02/2018 13:44:55,6
19/02/2018 13:44:55,5
19/02/2018 13:44:56,4
19/02/2018 13:44:56,3
19/02/2018 13:44:56,2
19/02/2018 13:44:57,1
19/02/2018 13:44:57,0
19/02/2018 13:50:01,0
19/02/2018 13:55:04,0
19/02/2018 14:00:07,0
19/02/2018 14:05:11,0
19/02/2018 14:10:14,0
19/02/2018 14:15:18,0
19/02/2018 14:20:21,0
19/02/2018 14:25:25,0
19/02/2018 14:30:28,0
19/02/2018 14:35:31,0
19/02/2018 14:40:35,0
20/02/2018 11:17:25,1
20/02/2018 11:20:09,0
20/02/2018 11:25:12,0
20/02/2018 11:30:15,0
20/02/2018 11:35:19,0
20/02/2018 11:40:22,0
20/02/2018 11:45:26,0
20/02/2018 11:50:29,0
20/02/2018 11:55:33,0
20/02/2018 12:00:36,0
20/02/2018 12:05:40,0
20/02/2018 12:10:43,0
20/02/2018 12:15:46,0
20/02/2018 15:33:31,1
20/02/2018 15:33:32,2
20/02/2018 15:38:36,2
20/02/2018 15:43:39,2
20/02/2018 15:48:42,2
20/02/2018 15:53:46,2
20/02/2018 15:58:49,2
20/02/2018 16:02:05,3
20/02/2018 16:07:08,3
20/02/2018 16:12:12,3
20/02/2018 16:17:20,3
20/02/2018 16:22:19,3
20/02/2018 16:27:22,3
20/02/2018 16:32:26,3
20/02/2018 16:37:29,3
20/02/2018 16:42:32,3
20/02/2018 16:47:36,3
20/02/2018 16:50:55,2
20/02/2018 16:55:58,2
20/02/2018 17:01:02,2
20/02/2018 17:06:05,2
20/02/2018 17:11:09,2
20/02/2018 17:16:12,2
20/02/2018 17:17:42,1
20/02/2018 17:17:42,0
20/02/2018 17:22:46,0
20/02/2018 17:27:49,0
20/02/2018 17:32:52,0
20/02/2018 17:37:56,0
20/02/2018 17:42:59,0
20/02/2018 17:48:03,0
20/02/2018 17:53:06,0
20/02/2018 17:58:10,0
20/02/2018 18:03:13,0
20/02/2018 18:08:17,0
20/02/2018 18:13:20,0
22/02/2018 12:55:28,1
22/02/2018 12:59:27,2
22/02/2018 12:59:32,3
22/02/2018 13:02:11,4
22/02/2018 13:02:11,5
22/02/2018 13:02:13,6
22/02/2018 13:07:17,6
22/02/2018 13:08:11,7
22/02/2018 13:08:11,8
22/02/2018 13:13:15,8
22/02/2018 13:18:18,8
22/02/2018 13:23:22,8
22/02/2018 13:28:25,8
22/02/2018 13:33:29,8
22/02/2018 13:38:32,8
22/02/2018 13:43:35,8
22/02/2018 13:48:39,8
22/02/2018 13:53:42,8
22/02/2018 13:58:46,8
22/02/2018 14:01:34,7
22/02/2018 14:01:35,6
22/02/2018 14:01:35,5
22/02/2018 14:01:35,4
22/02/2018 14:01:36,3
22/02/2018 14:01:36,2
22/02/2018 14:01:37,1
22/02/2018 14:01:37,0
22/02/2018 14:06:40,0
22/02/2018 14:11:44,0
22/02/2018 14:16:47,0
22/02/2018 14:21:51,0
22/02/2018 14:26:54,0
22/02/2018 14:31:57,0
22/02/2018 14:37:01,0
22/02/2018 14:42:04,0
22/02/2018 14:47:08,0
22/02/2018 14:52:11,0
22/02/2018 14:57:15,0
26/02/2018 13:02:04,1
26/02/2018 13:02:06,2
26/02/2018 13:02:08,3
26/02/2018 13:02:13,4
26/02/2018 13:02:50,5
26/02/2018 13:02:50,6
26/02/2018 13:02:50,7
26/02/2018 13:02:51,8
26/02/2018 13:02:51,9
26/02/2018 13:02:51,10
26/02/2018 13:02:52,11
26/02/2018 13:02:52,12
26/02/2018 13:05:49,13
26/02/2018 13:10:52,13
26/02/2018 13:15:55,13
26/02/2018 13:20:59,13
26/02/2018 13:26:02,13
26/02/2018 13:31:06,13
26/02/2018 13:36:09,13
26/02/2018 13:36:38,12
26/02/2018 13:37:02,13
26/02/2018 13:42:05,13
26/02/2018 13:47:08,13
26/02/2018 13:50:51,12
26/02/2018 13:50:52,11
26/02/2018 13:51:04,10
26/02/2018 13:51:08,9
26/02/2018 13:55:48,8
26/02/2018 13:55:49,6
26/02/2018 13:55:49,5
26/02/2018 13:55:49,4
26/02/2018 13:55:50,3
26/02/2018 13:55:51,2
26/02/2018 13:55:48,7
26/02/2018 13:55:52,1
26/02/2018 13:55:52,0
26/02/2018 14:00:56,0
26/02/2018 14:05:59,0
26/02/2018 14:11:02,0
26/02/2018 14:16:06,0
26/02/2018 14:21:09,0
26/02/2018 14:26:13,0
26/02/2018 14:31:16,0
26/02/2018 14:36:20,0
26/02/2018 14:41:24,0
26/02/2018 14:46:27,0
26/02/2018 14:51:30,0
28/02/2018 14:04:42,1
28/02/2018 14:04:42,2
28/02/2018 14:04:43,3
28/02/2018 14:04:45,4
28/02/2018 14:07:20,5
28/02/2018 14:07:21,4
28/02/2018 14:07:21,5
28/02/2018 14:07:22,4
28/02/2018 14:07:22,5
28/02/2018 14:07:22,4
28/02/2018 14:07:23,5
28/02/2018 14:07:23,4
28/02/2018 14:07:24,3
28/02/2018 14:07:25,4
28/02/2018 14:07:30,5
28/02/2018 14:07:32,4
28/02/2018 14:12:35,4
28/02/2018 14:17:39,4
28/02/2018 14:22:42,4
28/02/2018 14:27:45,4
28/02/2018 14:32:49,4
28/02/2018 14:37:52,4
28/02/2018 14:42:45,5
28/02/2018 14:42:48,4
28/02/2018 14:47:51,4
28/02/2018 14:48:05,3
28/02/2018 14:48:05,2
28/02/2018 14:48:07,1
28/02/2018 14:48:08,0
28/02/2018 14:53:11,0
28/02/2018 14:58:14,0
28/02/2018 15:03:18,0
28/02/2018 15:08:21,0
28/02/2018 15:13:25,0
28/02/2018 15:18:28,0
28/02/2018 15:23:31,0
28/02/2018 15:28:35,0
28/02/2018 15:33:38,0
28/02/2018 15:38:42,0
28/02/2018 15:43:45,0
01/03/2018 09:54:49,1
01/03/2018 09:59:53,1
01/03/2018 10:04:56,1
01/03/2018 10:09:59,1
01/03/2018 10:15:03,1
01/03/2018 10:20:06,1
01/03/2018 10:25:10,1
01/03/2018 10:30:13,1
01/03/2018 10:35:17,1
01/03/2018 10:40:20,1
01/03/2018 10:45:24,1
01/03/2018 10:45:32,2
01/03/2018 10:45:33,3
01/03/2018 10:45:34,4
01/03/2018 10:45:35,5
01/03/2018 10:45:57,4
01/03/2018 10:45:57,3
01/03/2018 10:45:58,2
01/03/2018 10:45:58,1
01/03/2018 10:45:59,0
01/03/2018 10:51:02,0
01/03/2018 10:56:06,0
01/03/2018 11:01:09,0
01/03/2018 11:06:13,0
01/03/2018 11:11:16,0
01/03/2018 11:16:19,0
01/03/2018 11:21:23,0
01/03/2018 11:26:26,0
01/03/2018 11:31:30,0
01/03/2018 11:36:33,0
01/03/2018 11:41:37,0
01/03/2018 11:46:37,1
01/03/2018 11:46:38,2
01/03/2018 11:46:39,3
01/03/2018 11:46:39,4
01/03/2018 11:46:40,5
01/03/2018 11:46:54,4
01/03/2018 11:46:55,3
01/03/2018 11:46:55,2
01/03/2018 11:46:56,1
01/03/2018 11:46:57,0
01/03/2018 11:52:01,0
01/03/2018 11:57:04,0
01/03/2018 12:02:08,0
01/03/2018 12:07:11,0
01/03/2018 12:12:14,0
01/03/2018 12:17:18,0
01/03/2018 12:22:21,0
01/03/2018 12:27:25,0
01/03/2018 12:32:28,0
01/03/2018 12:37:32,0
01/03/2018 12:42:35,0
02/03/2018 13:01:40,1
02/03/2018 13:06:43,1
02/03/2018 13:11:46,1
02/03/2018 13:16:50,1
02/03/2018 13:21:53,1
02/03/2018 13:26:57,1
02/03/2018 13:32:00,1
02/03/2018 13:37:04,1
02/03/2018 13:42:07,1
02/03/2018 13:46:48,0
02/03/2018 13:51:52,0
02/03/2018 13:56:55,0
02/03/2018 14:01:58,0
02/03/2018 14:07:02,0
02/03/2018 14:12:05,0
02/03/2018 14:17:09,0
02/03/2018 14:22:12,0
02/03/2018 14:27:16,0
02/03/2018 14:32:19,0
02/03/2018 14:37:22,0
05/03/2018 08:51:20,1
05/03/2018 08:56:24,1
05/03/2018 08:57:09,2
05/03/2018 08:58:41,3
05/03/2018 09:03:39,3
05/03/2018 09:08:42,3
05/03/2018 09:13:46,3
05/03/2018 09:18:49,3
05/03/2018 09:23:53,3
05/03/2018 09:28:56,3
05/03/2018 09:34:00,3
05/03/2018 09:39:03,3
05/03/2018 09:44:07,3
05/03/2018 09:49:10,3
05/03/2018 09:54:13,3
05/03/2018 09:59:17,3
05/03/2018 10:04:20,3
05/03/2018 10:09:24,3
05/03/2018 10:14:27,3
05/03/2018 10:19:30,3
05/03/2018 10:24:34,3
05/03/2018 10:29:37,3
05/03/2018 10:34:41,3
05/03/2018 10:35:16,4
05/03/2018 10:35:16,3
05/03/2018 10:40:20,3
05/03/2018 10:45:23,3
05/03/2018 10:47:36,2
05/03/2018 10:47:36,1
05/03/2018 10:47:37,0
05/03/2018 10:52:40,0
05/03/2018 10:57:44,0
05/03/2018 11:02:47,0
05/03/2018 11:07:50,0
05/03/2018 11:12:54,0
05/03/2018 11:17:57,0
05/03/2018 11:23:01,0
05/03/2018 11:28:04,0
05/03/2018 11:33:08,0
05/03/2018 11:38:11,0
05/03/2018 11:43:15,0
05/03/2018 13:00:26,1
05/03/2018 13:00:33,2
05/03/2018 13:00:35,3
05/03/2018 13:00:37,4
05/03/2018 13:00:40,5
05/03/2018 13:00:52,6
05/03/2018 13:00:52,7
05/03/2018 13:00:52,8
05/03/2018 13:02:38,9
05/03/2018 13:02:38,10
05/03/2018 13:02:39,11
05/03/2018 13:03:43,12
05/03/2018 13:08:47,12
05/03/2018 13:13:50,12
05/03/2018 13:18:54,12
05/03/2018 13:23:57,12
05/03/2018 13:29:01,12
05/03/2018 13:34:04,12
05/03/2018 13:36:03,11
05/03/2018 13:36:03,10
05/03/2018 13:36:05,9
05/03/2018 13:36:23,8
05/03/2018 13:36:28,7
05/03/2018 13:36:28,6
05/03/2018 13:36:28,5
05/03/2018 13:36:28,4
05/03/2018 13:36:29,3
05/03/2018 13:36:29,2
05/03/2018 13:36:30,1
05/03/2018 13:36:30,0
05/03/2018 13:41:34,0
05/03/2018 13:46:37,0
05/03/2018 13:51:41,0
05/03/2018 13:56:44,0
05/03/2018 14:01:48,0
05/03/2018 14:06:51,0
05/03/2018 14:11:54,0
05/03/2018 14:16:58,0
05/03/2018 14:22:01,0
05/03/2018 14:27:05,0
05/03/2018 14:32:08,0
